<?xml version="1.0" encoding="UTF-8"?>
<svg height="16px" viewBox="0 0 16 16" width="16px" xmlns="http://www.w3.org/2000/svg" xmlns:xlink="http://www.w3.org/1999/xlink">
    <filter id="a" height="100%" width="100%" x="0%" y="0%">
        <feColorMatrix in="SourceGraphic" type="matrix" values="0 0 0 0 1 0 0 0 0 1 0 0 0 0 1 0 0 0 1 0"/>
    </filter>
    <mask id="b">
        <g filter="url(#a)">
            <rect fill-opacity="0.5" height="16" width="16"/>
        </g>
    </mask>
    <clipPath id="c">
        <rect height="152" width="192"/>
    </clipPath>
    <mask id="d">
        <g filter="url(#a)">
            <rect fill-opacity="0.8" height="16" width="16"/>
        </g>
    </mask>
    <linearGradient id="e" gradientTransform="matrix(0 -0.689655 1.529413 0 442.118011 48.965483)" gradientUnits="userSpaceOnUse" x1="-65.300034" x2="-21.800039" y1="-242.000031" y2="-242.000031">
        <stop offset="0" stop-color="#ed333b" stop-opacity="0.9"/>
        <stop offset="1" stop-color="#ed333b" stop-opacity="0"/>
    </linearGradient>
    <clipPath id="f">
        <rect height="152" width="192"/>
    </clipPath>
    <g clip-path="url(#c)" mask="url(#b)" transform="matrix(1 0 0 1 -168 -16)">
        <path d="m 100 96 v 4 h -60 v -4 z m 0 0" fill="#ffffff"/>
    </g>
    <g clip-path="url(#f)" mask="url(#d)" transform="matrix(1 0 0 1 -168 -16)">
        <path d="m 20 100 v -40 h 104 v 40 z m 0 0" fill="url(#e)"/>
    </g>
    <g fill="#241f31">
        <path d="m 1 1 v 5 h 5 v -5 z m 2 2 h 1 v 1 h -1 z m 0 0"/>
        <path d="m 1 10 v 5 h 5 v -5 z m 2 2 h 1 v 1 h -1 z m 0 0"/>
        <path d="m 10 1 v 5 h 5 v -5 z m 2 2 h 1 v 1 h -1 z m 0 0"/>
        <path d="m 3 7 h -2 v 2 h 2 z m 0 0"/>
        <path d="m 8 7 h -4 v 2 h 4 z m 0 0"/>
        <path d="m 11 11 h 2 v 4 h -2 z m 0 0"/>
        <path d="m 7 3 h 2 v 2 h -2 z m 0 0"/>
        <path d="m 9 13 h 2 v 2 h -2 z m 0 0"/>
        <path d="m 13 9 h 2 v 2 h -2 z m 0 0"/>
        <path d="m 8 9 h 2 v 2 h -2 z m 0 0"/>
        <path d="m 11 7 h 2 v 2 h -2 z m 0 0"/>
        <path d="m 13 13 h 2 v 2 h -2 z m 0 0"/>
    </g>
</svg>
